…
data_abstracts <- read_csv(
  file = data_file, 
  col_names = c("id", "title", "author", "year", "doi", "outlet", "type", "abstract"), 
  col_types = "cccicccc",
  skip = 1
)
data_abstracts
```

    # A tibble: 12,888 × 8
       id    title                          author  year doi   outlet type  abstract
       <chr> <chr>                          <chr>  <int> <chr> <chr>  <chr> <chr>   
     1 1     Phrase break prediction with … Futam…  2021 10.2… INTER… Proc… We prop…
     2 2     Salience-Aware Event Chain Mo… Zhang…  2021 <NA>  2021 … Proc… Storyte…
     3 3     In Validations We Trust? The … Song,…  2020 10.1… POLIT… Arti… Politic…
     4 4     The Internet in China: New Me… Zhang…  2018 10.1… JOURN… Revi… This es…
     5 5     Storytelling and the Italian … Faggi…  2019 <NA>  QUALI… Arti… The tra…
     6 6     Public opinion on megaproject… Kundu…  2023 10.1… PUBLI… Arti… Megapro…
     7 7     Don't Read the Comments: Exam… Murib…  2022 10.3… LAWS   Arti… How are…
     8 8     Deceptive (De)humanization: H… Marko…  2023 10.1… JOURN… Arti… This pa…
     9 9     The Twittering Presidents An … Wigne…  2021 10.1… JOURN… Arti… This pa…
    10 10    A Multitheoretical Approach t… Margo…  2018 10.1… COMMU… Arti… This ar…
    # ℹ 12,878 more rows
…
