…
data_abstracts_scopus <- data.table::fread(data_scopus) |> 
  select(title = Title, author = `Author full names`, year = Year, doi = DOI, 
         outlet = `Source title`, type = `Document Type`, 
         abstract = Abstract) |> 
  as_tibble()
data_abstracts_scopus
```

    # A tibble: 11,447 × 7
       title                                author  year doi   outlet type  abstract
       <chr>                                <chr>  <int> <chr> <chr>  <chr> <chr>   
     1 Development of a patients’ satisfac… Khale…  2023 10.1… BMC H… Arti… Backgro…
     2 SENTIMENT ANALYSIS OF USER PREFEREN… Nurdi…  2023 10.2… Manag… Arti… The aim…
     3 The 2021 Nigerian Twitter ban: A te… Moham…  2023 10.1… Commu… Arti… The sus…
     4 AlgBERT: Automatic Construction of … Hamad…  2023 10.1… ACM T… Arti… Nowaday…
     5 Decoding consumer-centric transitio… Pani,…  2023 10.1… Resea… Arti… Climate…
     6 A Nationwide Sample of Adolescents … Allis…  2023 10.1… Journ… Arti… Purpose…
     7 A systematic review of applications… Kusal…  2023 10.1… Artif… Arti… Artific…
     8 Stakeholders' engagement through so… Shoko…  2023 10.1… Busin… Arti… The sta…
     9 Sentiment Analysis on the Classific… Kaban…  2023 10.1… AIP C… Conf… The sel…
    10 OKG: A Knowledge Graph for Fine-gra… Blin,…  2023 10.1… K-CAP… Conf… In rece…
    # ℹ 11,437 more rows
…
data_abstracts_wos <- data.table::fread(data_wos) |> 
  select(title = `Article Title`, author = `Author Full Names`, year = `Publication Year`, 
         doi = DOI, outlet = `Source Title`, type = `Document Type`, 
         abstract = Abstract) |> 
  as_tibble()
data_abstracts_wos
```

    # A tibble: 5,778 × 7
       title                                author  year doi   outlet type  abstract
       <chr>                                <chr>  <int> <chr> <chr>  <chr> <chr>   
     1 The Political Biases of ChatGPT      Rozad…  2023 10.3… SOCIA… Arti… Recent …
     2 Inferring cancer disease response f… Tan, …  2023 10.1… JOURN… Arti… Objecti…
     3 The unreasonable effectiveness of l… Savel…  2023 10.3… FRONT… Arti… The eme…
     4 Co-Writing with Opinionated Languag… Jakes…  2023 10.1… PROCE… Proc… If larg…
     5 Sentiment analysis of online respon… Seong…  2023 10.1… HELIY… Arti… Opinion…
     6 Chat Generative Pre-trained Transfo… Chave…  2023 10.1… AMERI… Arti… With th…
     7 The promise and peril of using a la… Cherv…  2023 10.1… FERTI… Arti… Objecti…
     8 Phrase break prediction with bidire… Futam…  2021 10.2… INTER… Proc… We prop…
     9 A System for Interviewing and Colle… Shin,…  2023 10.3… APPLI… Arti… In case…
    10 Leveraging ChatGPT in the Pediatric… Karak…  2023 10.1… PEDIA… Arti… Backgro…
    # ℹ 5,768 more rows

1.  We merge these data and assign a unique ID:

``` r
data_abstracts <- bind_rows(data_abstracts_scopus, data_abstracts_wos) |> 
  mutate(id = as.character(row_number()), .before = 1L)
data_abstracts
```

    # A tibble: 17,225 × 8
       id    title                          author  year doi   outlet type  abstract
       <chr> <chr>                          <chr>  <int> <chr> <chr>  <chr> <chr>   
     1 1     Development of a patients’ sa… Khale…  2023 10.1… BMC H… Arti… Backgro…
     2 2     SENTIMENT ANALYSIS OF USER PR… Nurdi…  2023 10.2… Manag… Arti… The aim…
     3 3     The 2021 Nigerian Twitter ban… Moham…  2023 10.1… Commu… Arti… The sus…
     4 4     AlgBERT: Automatic Constructi… Hamad…  2023 10.1… ACM T… Arti… Nowaday…
     5 5     Decoding consumer-centric tra… Pani,…  2023 10.1… Resea… Arti… Climate…
     6 6     A Nationwide Sample of Adoles… Allis…  2023 10.1… Journ… Arti… Purpose…
     7 7     A systematic review of applic… Kusal…  2023 10.1… Artif… Arti… Artific…
     8 8     Stakeholders' engagement thro… Shoko…  2023 10.1… Busin… Arti… The sta…
     9 9     Sentiment Analysis on the Cla… Kaban…  2023 10.1… AIP C… Conf… The sel…
    10 10    OKG: A Knowledge Graph for Fi… Blin,…  2023 10.1… K-CAP… Conf… In rece…
    # ℹ 17,215 more rows
…
New dataset:

``` r
data_abstracts_clean <- data_abstracts |> 
  filter(!id %in% remove_df$id)
data_abstracts_clean
```

    # A tibble: 5,252 × 8
       id    title                          author  year doi   outlet type  abstract
       <chr> <chr>                          <chr>  <int> <chr> <chr>  <chr> <chr>   
     1 3     The 2021 Nigerian Twitter ban… Moham…  2023 10.1… Commu… Arti… The sus…
     2 4     AlgBERT: Automatic Constructi… Hamad…  2023 10.1… ACM T… Arti… Nowaday…
     3 6     A Nationwide Sample of Adoles… Allis…  2023 10.1… Journ… Arti… Purpose…
     4 7     A systematic review of applic… Kusal…  2023 10.1… Artif… Arti… Artific…
     5 9     Sentiment Analysis on the Cla… Kaban…  2023 10.1… AIP C… Conf… The sel…
     6 10    OKG: A Knowledge Graph for Fi… Blin,…  2023 10.1… K-CAP… Conf… In rece…
     7 12    Classifying Religious Trends … Jalil…  2023 10.1… AIP C… Conf… Social …
     8 13    Revealing People’s Sentiment … Calva…  2023 10.3… Compu… Arti… Social …
     9 14    The impact of the federal men… Hswen…  2023 10.1… Preve… Arti… The US …
    10 17    A CONCEPTUAL AQUILA MERGED AR… Sange…  2023 10.3… Journ… Arti… Sentime…
    # ℹ 5,242 more rows
…
